/home/vanthan/vn-wallet-gateway/src/test/java/com/truemoney/ewallet/test/bankcard/ClientAddBankCardTest.java
/home/vanthan/vn-wallet-gateway/src/test/java/com/truemoney/ewallet/test/province/ClientProvinceTest.java
/home/vanthan/vn-wallet-gateway/src/test/java/com/truemoney/ewallet/test/S3UploadTest.java
/home/vanthan/vn-wallet-gateway/src/test/java/com/truemoney/ewallet/test/ClientSignInTest.java
/home/vanthan/vn-wallet-gateway/src/test/java/com/truemoney/ewallet/test/bankcard/ClientBankCardTest.java
/home/vanthan/vn-wallet-gateway/src/test/java/com/truemoney/ewallet/test/notification/RegiterNotificationClient.java
